[
	{
		"cue_id": 1,
		"time_tag": "xnight",
		"vertical_pos": "up",
		"keywords": [ "glace", "neige" ]
	},
	{
		"cue_id": 2,
		"time_tag": "xnight",
		"vertical_pos": "up",
		"keywords": [ "arbres", "vaches_suisses", "cloches" ]
	},
	{
		"cue_id": 3,
		"time_tag": "xnight",
		"vertical_pos": "up",
		"keywords": [ "arbres", "corbeaux", "vent", "cloches", "carrillons", "bateaux" ]
	},
	{
		"cue_id": 4,
		"time_tag": "xnight",
		"vertical_pos": "up",
		"keywords": [ "cloches", "carrillons", "bateaux" ]
	},
	{
		"cue_id": 5,
		"time_tag": "am",
		"vertical_pos": "up",
		"keywords": [ "chocards", "bateaux" ]
	},
	{
		"cue_id": 6,
		"time_tag": "am",
		"vertical_pos": "up",
		"keywords": [ "cerfs", "bateaux" ]
	},
	{
		"cue_id": 7,
		"time_tag": "am",
		"vertical_pos": "up",
		"keywords": [ "puissance", "cerfs", "roseaux", "bateaux" ]
	},
	{
		"cue_id": 8,
		"time_tag": "am",
		"vertical_pos": "up",
		"keywords": [ "puissance", "cerfs", "roseaux", "bateaux" ]
	},
	{
		"cue_id": 9,
		"time_tag": "midi",
		"vertical_pos": "up",
		"keywords": [ "roseaux", "bateaux" ]
	},
	{
		"cue_id": 10,
		"time_tag": "midi",
		"vertical_pos": "up",
		"keywords": [ "roseaux", "bateaux" ]
	},
	{
		"cue_id": 11,
		"time_tag": "pm",
		"vertical_pos": "up",
		"keywords": [ "moutons", "puissance", "vent", "bateliers", "bateaux" ]
	},
	{
		"cue_id": 12,
		"time_tag": "pm",
		"vertical_pos": "up",
		"keywords": [ "puissance", "cigales", "vent", "bateliers", "bateaux" ]
	},
	{
		"cue_id": 13,
		"time_tag": "xnight",
		"vertical_pos": "up",
		"keywords": [ "canadaires", "bateliers" ]
	},
	{
		"cue_id": 14,
		"time_tag": "xnight",
		"vertical_pos": "up",
		"keywords": [ "canadaires", "vent", "arbres" ]
	},
	{
		"cue_id": 15,
		"time_tag": "xnight",
		"vertical_pos": "up",
		"keywords": [ "vent", "flamants", "arbustes", "confluence" ]
	},
	{
		"cue_id": 16,
		"time_tag": "xnight",
		"vertical_pos": "up",
		"keywords": [ "arbustes", "mouettes", "taureaux", "marais", "mer", "confluence" ]
	},
	{
		"cue_id": 17,
		"time_tag": "xnight",
		"vertical_pos": "down",
		"keywords": [ "batraciens", "roches" ]
	},
	{
		"cue_id": 18,
		"time_tag": "xnight",
		"vertical_pos": "down",
		"keywords": [ "roches", "crevettes", "roseaux", "bateaux" ]
	},
	{
		"cue_id": 19,
		"time_tag": "xnight",
		"vertical_pos": "down",
		"keywords": [ "roches", "crevettes", "roseaux", "bateaux" ]
	},
	{
		"cue_id": 20,
		"time_tag": "xnight",
		"vertical_pos": "down",
		"keywords": [ "algues" ]
	},
	{
		"cue_id": 21,
		"time_tag": "am",
		"vertical_pos": "down",
		"keywords": [ "algues", "puissance" ]
	},
	{
		"cue_id": 22,
		"time_tag": "am",
		"vertical_pos": "down",
		"keywords": [ "eau", "bateaux", "puissance" ]
	},
	{
		"cue_id": 23,
		"time_tag": "am",
		"vertical_pos": "down",
		"keywords": [ "eau", "bateaux", "roseaux" ]
	},
	{
		"cue_id": 24,
		"time_tag": "am",
		"vertical_pos": "down",
		"keywords": [ "eau", "bateaux", "roseaux" ]
	},
	{
		"cue_id": 25,
		"time_tag": "midi",
		"vertical_pos": "down",
		"keywords": [ "eau", "bateaux", "roseaux" ]
	},
	{
		"cue_id": 26,
		"time_tag": "midi",
		"vertical_pos": "down",
		"keywords": [ "eau", "bateaux", "puissance", "plantes_subaquatiques" ]
	},
	{
		"cue_id": 27,
		"time_tag": "pm",
		"vertical_pos": "down",
		"keywords": [ "eau", "bateaux", "puissance", "plantes_subaquatiques", "roches" ]
	},
	{
		"cue_id": 28,
		"time_tag": "pm",
		"vertical_pos": "down",
		"keywords": [ "plantes_subaquatiques" ]
	},
	{
		"cue_id": 29,
		"time_tag": "xnight",
		"vertical_pos": "down",
		"keywords": [ "plantes_subaquatiques", "roseaux" ]
	},
	{
		"cue_id": 30,
		"time_tag": "xnight",
		"vertical_pos": "down",
		"keywords": [ "roseaux" ]
	},
	{
		"cue_id": 31,
		"time_tag": "xnight",
		"vertical_pos": "down",
		"keywords": [ "roseaux", "roches" ]
	},
	{
		"cue_id": 32,
		"time_tag": "xnight",
		"vertical_pos": "down",
		"keywords": [ "micro_organismes" ]
	}
]